ConveningVis
…
  yearsaddnat %>% 
    mutate(percentchange_nat = 0) -> yearsaddnat
  
  for (row in 1:nrow(yearsaddnat)) {
    yearsaddnat[row, "percentchange_nat"] <- yearsaddnat[row, "natn"] / nrow(cpdata)
  }
  
  yearsaddnat$percentchange_nat <- round(yearsaddnat$percentchange_nat, digits=3)
  
yearsaddnat

# A tibble: 35 × 3
   Year_Started  natn percentchange_nat
   <chr>        <int>             <dbl>
 1 1922             1             0.002
 2 1974             2             0.005
 3 1990             4             0.009
 4 1991             5             0.011
 5 1992             6             0.014
 6 1993             8             0.018
 7 1995            11             0.025
 8 1998            12             0.027
 9 1999            14             0.032
10 2001            16             0.036
# ℹ 25 more rows
…
    for (row in 1:nrow(yearsaddregion)) {
      yearsaddregion[row, "percentchange_region"] <- yearsaddregion[row, "regionn"] / numregion
    }
    
    yearsaddregion$percentchange_region <- round(yearsaddregion$percentchange_region, digits=3)
    
    return(yearsaddregion)
}
  
yearsaddbyregion <- percentchangeregion("Arizona", "California", "Utah", "Colorado", "New Mexico", "Texas")
yearsaddbyregion

# A tibble: 24 × 3
   Year_Started regionn percentchange_region
   <chr>          <int>                <dbl>
 1 1991               1                0.007
 2 1995               2                0.014
 3 1998               3                0.021
 4 1999               4                0.029
 5 2001               5                0.036
 6 2003               6                0.043
 7 2004               7                0.05 
 8 2006               8                0.057
 9 2007               9                0.064
10 2008              14                0.1  
# ℹ 14 more rows
…
